﻿{
  "$schema": "http://json.schemastore.org/launchsettings.json",
  "iisSettings": {
    "windowsAuthentication": false,
    "anonymousAuthentication": true,
    "iisExpress": {
      "applicationUrl": "http://localhost:20694",
      "sslPort": 44332
    }
  },
  "profiles": {
    "EventDrivenSample": {
      "commandName": "Project",
      "launchBrowser": false,
      "launchUrl": "weatherforecast",
      "applicationUrl": "http://localhost:5000",
      "environmentVariables": {
        "AWS_PROFILE": "jodisoft",
        "ASPNETCORE_ENVIRONMENT": "Development",
        "AWS_REGION": "us-east-1"
      }
    }
  }
}
